Other functions in FARSread
…
We can also add some features to improve the maps readability by adding a few more information. Here we re-examine the the State of Texas and add some features to easily identify certain areas of the map. This becomes handy during presentation to highlight which areas are being referred to in the map.

But before we can plot the results, we first have to find the relative centers where most of the accidents occured. We will first find which County in Texas has the most number of recorded traffic accidents and then find their relative position based on the geospatial location provided in the FARS data.

acc_2015 <- fars_read("accident_2015.csv.bz2") ### read in the FARS data for 2015

texas <- acc_2015 %>% ### 2015 FARS data
        filter(STATE == 48) %>% ### limit our analysis to the State of Texas
        select(COUNTY, CITY, LONGITUD, LATITUDE) ### select the variables we need

texas %>% ### 2015 FARS data from the state of Texas
        group_by(COUNTY) %>% ### group data by county
        summarize(count = n()) %>% ### count number of accidents per county
        arrange(desc(count)) ### arrange county from highest to lowest
#> # A tibble: 234 x 2
#>    COUNTY count
#>     <int> <int>
#>  1    201   332
#>  2    113   238
#>  3     29   171
#>  4    439   139
#>  5    453   132
#>  6    215    59
#>  7    141    55
#>  8    339    54
#>  9    423    52
#> 10    167    41
#> # ... with 224 more rows
…
